2018-06-17 16:31:31,784 INFO: App Startup [in /home/marlan/workspace/world_cup_predictor/backend/server/__init__.py:26]
2018-06-17 16:34:22,934 INFO: App Startup [in /home/marlan/workspace/world_cup_predictor/backend/server/__init__.py:26]
2018-06-17 16:35:42,523 INFO: App Startup [in /home/marlan/workspace/world_cup_predictor/backend/server/__init__.py:26]
2018-06-17 16:35:45,034 INFO: Response Body:{"success": true, "message": "Retrieved all matches", "result": {"team": {"1": {"team_id": 1, "team_name": "Argentina", "team_code": "ARG", "team_iso_code": "ARG", "team_flag_url": "https://restcountries.eu/data/arg.svg", "team_lat": -34.0, "team_lng": -64.0}, "2": {"team_id": 2, "team_name": "Australia", "team_code": "AUS", "team_iso_code": "AUS", "team_flag_url": "https://restcountries.eu/data/aus.svg", "team_lat": -27.0, "team_lng": 133.0}, "3": {"team_id": 3, "team_name": "Belgium", "team_code": "BEL", "team_iso_code": "BEL", "team_flag_url": "https://restcountries.eu/data/bel.svg", "team_lat": 50.83333333, "team_lng": 4.0}, "4": {"team_id": 4, "team_name": "Brazil", "team_code": "BRA", "team_iso_code": "BRA", "team_flag_url": "https://restcountries.eu/data/bra.svg", "team_lat": -10.0, "team_lng": -55.0}, "5": {"team_id": 5, "team_name": "Colombia", "team_code": "COL", "team_iso_code": "COL", "team_flag_url": "https://restcountries.eu/data/col.svg", "team_lat": 4.0, "team_lng": -72.0}, "6": {"team_id": 6, "team_name": "Costa Rica", "team_code": "CRC", "team_iso_code": "CRI", "team_flag_url": "https://restcountries.eu/data/cri.svg", "team_lat": 10.0, "team_lng": -84.0}, "7": {"team_id": 7, "team_name": "Croatia", "team_code": "CRO", "team_iso_code": "HRV", "team_flag_url": "https://restcountries.eu/data/hrv.svg", "team_lat": 45.16666666, "team_lng": 15.5}, "8": {"team_id": 8, "team_name": "Denmark", "team_code": "DEN", "team_iso_code": "DNK", "team_flag_url": "https://restcountries.eu/data/dnk.svg", "team_lat": 56.0, "team_lng": 10.0}, "9": {"team_id": 9, "team_name": "Egypt", "team_code": "EGY", "team_iso_code": "EGY", "team_flag_url": "https://restcountries.eu/data/egy.svg", "team_lat": 27.0, "team_lng": 30.0}, "10": {"team_id": 10, "team_name": "England", "team_code": "ENG", "team_iso_code": "GBR", "team_flag_url": "https://restcountries.eu/data/gbr.svg", "team_lat": 54.0, "team_lng": -2.0}, "11": {"team_id": 11, "team_name": "Korea Republic", "team_code": "KOR", "team_iso_code": "KOR", "team_flag_url": "https://restcountries.eu/data/kor.svg", "team_lat": 37.0, "team_lng": 127.5}, "12": {"team_id": 12, "team_name": "France", "team_code": "FRA", "team_iso_code": "FRA", "team_flag_url": "https://restcountries.eu/data/fra.svg", "team_lat": 46.0, "team_lng": 2.0}, "13": {"team_id": 13, "team_name": "Germany", "team_code": "GER", "team_iso_code": "DEU", "team_flag_url": "https://restcountries.eu/data/deu.svg", "team_lat": 51.0, "team_lng": 9.0}, "14": {"team_id": 14, "team_name": "Iceland", "team_code": "ISL", "team_iso_code": "ISL", "team_flag_url": "https://restcountries.eu/data/isl.svg", "team_lat": 65.0, "team_lng": -18.0}, "15": {"team_id": 15, "team_name": "Iran", "team_code": "IRN", "team_iso_code": "IRN", "team_flag_url": "https://restcountries.eu/data/irn.svg", "team_lat": 32.0, "team_lng": 53.0}, "16": {"team_id": 16, "team_name": "Japan", "team_code": "JPN", "team_iso_code": "JPN", "team_flag_url": "https://restcountries.eu/data/jpn.svg", "team_lat": 36.0, "team_lng": 138.0}, "17": {"team_id": 17, "team_name": "Mexico", "team_code": "MEX", "team_iso_code": "MEX", "team_flag_url": "https://restcountries.eu/data/mex.svg", "team_lat": 23.0, "team_lng": -102.0}, "18": {"team_id": 18, "team_name": "Morocco", "team_code": "MAR", "team_iso_code": "MAR", "team_flag_url": "https://restcountries.eu/data/mar.svg", "team_lat": 32.0, "team_lng": -5.0}, "19": {"team_id": 19, "team_name": "Nigeria", "team_code": "NGR", "team_iso_code": "NGA", "team_flag_url": "https://restcountries.eu/data/nga.svg", "team_lat": 10.0, "team_lng": 8.0}, "20": {"team_id": 20, "team_name": "Panama", "team_code": "PAN", "team_iso_code": "PAN", "team_flag_url": "https://restcountries.eu/data/pan.svg", "team_lat": 9.0, "team_lng": -80.0}, "21": {"team_id": 21, "team_name": "Peru", "team_code": "PER", "team_iso_code": "PER", "team_flag_url": "https://restcountries.eu/data/per.svg", "team_lat": -10.0, "team_lng": -76.0}, "22": {"team_id": 22, "team_name": "Poland", "team_code": "POL", "team_iso_code": "POL", "team_flag_url": "https://restcountries.eu/data/pol.svg", "team_lat": 52.0, "team_lng": 20.0}, "23": {"team_id": 23, "team_name": "Portugal", "team_code": "POR", "team_iso_code": "PRT", "team_flag_url": "https://restcountries.eu/data/prt.svg", "team_lat": 39.5, "team_lng": -8.0}, "24": {"team_id": 24, "team_name": "Russia", "team_code": "RUS", "team_iso_code": "RUS", "team_flag_url": "https://restcountries.eu/data/rus.svg", "team_lat": 60.0, "team_lng": 100.0}, "25": {"team_id": 25, "team_name": "Saudi Arabia", "team_code": "KSA", "team_iso_code": "SAU", "team_flag_url": "https://restcountries.eu/data/sau.svg", "team_lat": 25.0, "team_lng": 45.0}, "26": {"team_id": 26, "team_name": "Senegal", "team_code": "SEN", "team_iso_code": "SEN", "team_flag_url": "https://restcountries.eu/data/sen.svg", "team_lat": 14.0, "team_lng": -14.0}, "27": {"team_id": 27, "team_name": "Serbia", "team_code": "SRB", "team_iso_code": "SRB", "team_flag_url": "https://restcountries.eu/data/srb.svg", "team_lat": 44.0, "team_lng": 21.0}, "28": {"team_id": 28, "team_name": "Spain", "team_code": "ESP", "team_iso_code": "ESP", "team_flag_url": "https://restcountries.eu/data/esp.svg", "team_lat": 40.0, "team_lng": -4.0}, "29": {"team_id": 29, "team_name": "Sweden", "team_code": "SWE", "team_iso_code": "SWE", "team_flag_url": "https://restcountries.eu/data/swe.svg", "team_lat": 62.0, "team_lng": 15.0}, "30": {"team_id": 30, "team_name": "Switzerland", "team_code": "SUI", "team_iso_code": "CHE", "team_flag_url": "https://restcountries.eu/data/che.svg", "team_lat": 47.0, "team_lng": 8.0}, "31": {"team_id": 31, "team_name": "Tunisia", "team_code": "TUN", "team_iso_code": "TUN", "team_flag_url": "https://restcountries.eu/data/tun.svg", "team_lat": 34.0, "team_lng": 9.0}, "32": {"team_id": 32, "team_name": "Uruguay", "team_code": "URU", "team_iso_code": "URY", "team_flag_url": "https://restcountries.eu/data/ury.svg", "team_lat": -33.0, "team_lng": -56.0}}}} [in /home/marlan/workspace/world_cup_predictor/backend/server/routes.py:22]
2018-06-17 16:43:23,087 INFO: App Startup [in /home/marlan/workspace/world_cup_predictor/backend/server/__init__.py:26]
127.0.0.1 - - [17/Jun/2018:16:43:36 +0200] GET /team HTTP/1.1 200 6008
