name,location
Luzhniki Stadium,Moscow
Ekaterinburg Arena,Ekaterinburg
Saint Petersburg Stadium,St. Petersburg
Fisht Stadium,Sochi
Kazan Arena,Kazan
Spartak Stadium,Moscow
Mordovia Arena,Saransk
Kaliningrad Stadium,Kalingrad
Samara Arena,Samara
Rostov Arena,Rostov-On-Don
Nizhny Novgorod Stadium,Nizhny Novgorod
Volgograd Arena,Volgograd
